%YAML 1.1
%TAG !u! tag:unity3d.com,2011:
--- !u!74 &7400000
AnimationClip:
  m_ObjectHideFlags: 0
  m_CorrespondingSourceObject: {fileID: 0}
  m_PrefabInstance: {fileID: 0}
  m_PrefabAsset: {fileID: 0}
  m_Name: said
  serializedVersion: 6
  m_Legacy: 0
  m_Compressed: 0
  m_UseHighQualityCurve: 1
  m_RotationCurves: []
  m_CompressedRotationCurves: []
  m_EulerCurves: []
  m_PositionCurves: []
  m_ScaleCurves: []
  m_FloatCurves: []
  m_PPtrCurves:
  - curve:
    - time: 0
      value: {fileID: 21300000, guid: 5f71003419cafb24e8ab8b8c94789b07, type: 3}
    - time: 0.016666668
      value: {fileID: 21300000, guid: 4184dfc77998bbc45b7f25f10e14ec5f, type: 3}
    - time: 0.033333335
      value: {fileID: 21300000, guid: 48d41674065e6aa489febdc52caf15e0, type: 3}
    - time: 0.05
      value: {fileID: 21300000, guid: 12a97cd64c39d8b47a5e073441092889, type: 3}
    - time: 0.06666667
      value: {fileID: 21300000, guid: 79089077424a23649a1787705f14d9bb, type: 3}
    - time: 0.083333336
      value: {fileID: 21300000, guid: f26b35140263d5041ae801252e3a26c8, type: 3}
    - time: 0.1
      value: {fileID: 21300000, guid: 8b60c10ca0b0f944ba9ddeaacd1712ac, type: 3}
    - time: 0.11666667
      value: {fileID: 21300000, guid: 2454c92fd7b306b4e80f3d41cbf65475, type: 3}
    - time: 0.13333334
      value: {fileID: 21300000, guid: a94cddc82fda2cb4ab3aabf39049e4a9, type: 3}
    - time: 0.15
      value: {fileID: 21300000, guid: 6df25be420bb85e409e7e122f2fff0be, type: 3}
    - time: 0.16666667
      value: {fileID: 21300000, guid: c155071ee874d1841a7bbfe02c9ef3b2, type: 3}
    - time: 0.18333334
      value: {fileID: 21300000, guid: afdb60c899a0ff741951ed1df5e9cc18, type: 3}
    - time: 0.2
      value: {fileID: 21300000, guid: a64999f7294c5b6469054b90f7f6fc16, type: 3}
    - time: 0.21666667
      value: {fileID: 21300000, guid: 9cd49821a4e59b54e8ad27822595ec14, type: 3}
    - time: 0.23333333
      value: {fileID: 21300000, guid: f550075cbba63cf44b6bf20da9eb7828, type: 3}
    - time: 0.25
      value: {fileID: 21300000, guid: 8edb51cbdfd61e246840f07235ac0fc4, type: 3}
    - time: 0.26666668
      value: {fileID: 21300000, guid: 8efc99988ecd3e449878cb2b6471ecec, type: 3}
    - time: 0.28333333
      value: {fileID: 21300000, guid: 7a51974c8ca3c124abdcef9cce0e9d95, type: 3}
    - time: 0.3
      value: {fileID: 21300000, guid: 96517a37298b33e4da62e62c52947c3f, type: 3}
    - time: 0.31666666
      value: {fileID: 21300000, guid: ca7697b3a10711b42b4425b2a02c54cf, type: 3}
    - time: 0.33333334
      value: {fileID: 21300000, guid: 0951f07e76565bd48866a4b4cbb312f3, type: 3}
    - time: 0.35
      value: {fileID: 21300000, guid: fb413b7dae70bae42b447d3ec145f1d8, type: 3}
    - time: 0.36666667
      value: {fileID: 21300000, guid: b0abff8b481485e48b6f43a1e4d645be, type: 3}
    - time: 0.38333333
      value: {fileID: 21300000, guid: f0dfd9ae4c28fdc43b7bb9d8d6122d7e, type: 3}
    - time: 0.4
      value: {fileID: 21300000, guid: 52aa3d5ba64107746a34acabac3b9c30, type: 3}
    - time: 0.41666666
      value: {fileID: 21300000, guid: 92661d11bfde6174aa3154d76bd80cb8, type: 3}
    - time: 0.43333334
      value: {fileID: 21300000, guid: 264459e9ee8fe7845b4b457ba5a25080, type: 3}
    - time: 0.45
      value: {fileID: 21300000, guid: 77c22aa14493cb2429509ea524c1efaa, type: 3}
    - time: 0.46666667
      value: {fileID: 21300000, guid: c8fa60e101a179047b5c9b0170ddf246, type: 3}
    - time: 0.48333332
      value: {fileID: 21300000, guid: 32a52f6948a21f74899502a13568ec9d, type: 3}
    attribute: m_Sprite
    path: 
    classID: 212
    script: {fileID: 0}
  m_SampleRate: 60
  m_WrapMode: 0
  m_Bounds:
    m_Center: {x: 0, y: 0, z: 0}
    m_Extent: {x: 0, y: 0, z: 0}
  m_ClipBindingConstant:
    genericBindings:
    - serializedVersion: 2
      path: 0
      attribute: 0
      script: {fileID: 0}
      typeID: 212
      customType: 23
      isPPtrCurve: 1
    pptrCurveMapping:
    - {fileID: 21300000, guid: 5f71003419cafb24e8ab8b8c94789b07, type: 3}
    - {fileID: 21300000, guid: 4184dfc77998bbc45b7f25f10e14ec5f, type: 3}
    - {fileID: 21300000, guid: 48d41674065e6aa489febdc52caf15e0, type: 3}
    - {fileID: 21300000, guid: 12a97cd64c39d8b47a5e073441092889, type: 3}
    - {fileID: 21300000, guid: 79089077424a23649a1787705f14d9bb, type: 3}
    - {fileID: 21300000, guid: f26b35140263d5041ae801252e3a26c8, type: 3}
    - {fileID: 21300000, guid: 8b60c10ca0b0f944ba9ddeaacd1712ac, type: 3}
    - {fileID: 21300000, guid: 2454c92fd7b306b4e80f3d41cbf65475, type: 3}
    - {fileID: 21300000, guid: a94cddc82fda2cb4ab3aabf39049e4a9, type: 3}
    - {fileID: 21300000, guid: 6df25be420bb85e409e7e122f2fff0be, type: 3}
    - {fileID: 21300000, guid: c155071ee874d1841a7bbfe02c9ef3b2, type: 3}
    - {fileID: 21300000, guid: afdb60c899a0ff741951ed1df5e9cc18, type: 3}
    - {fileID: 21300000, guid: a64999f7294c5b6469054b90f7f6fc16, type: 3}
    - {fileID: 21300000, guid: 9cd49821a4e59b54e8ad27822595ec14, type: 3}
    - {fileID: 21300000, guid: f550075cbba63cf44b6bf20da9eb7828, type: 3}
    - {fileID: 21300000, guid: 8edb51cbdfd61e246840f07235ac0fc4, type: 3}
    - {fileID: 21300000, guid: 8efc99988ecd3e449878cb2b6471ecec, type: 3}
    - {fileID: 21300000, guid: 7a51974c8ca3c124abdcef9cce0e9d95, type: 3}
    - {fileID: 21300000, guid: 96517a37298b33e4da62e62c52947c3f, type: 3}
    - {fileID: 21300000, guid: ca7697b3a10711b42b4425b2a02c54cf, type: 3}
    - {fileID: 21300000, guid: 0951f07e76565bd48866a4b4cbb312f3, type: 3}
    - {fileID: 21300000, guid: fb413b7dae70bae42b447d3ec145f1d8, type: 3}
    - {fileID: 21300000, guid: b0abff8b481485e48b6f43a1e4d645be, type: 3}
    - {fileID: 21300000, guid: f0dfd9ae4c28fdc43b7bb9d8d6122d7e, type: 3}
    - {fileID: 21300000, guid: 52aa3d5ba64107746a34acabac3b9c30, type: 3}
    - {fileID: 21300000, guid: 92661d11bfde6174aa3154d76bd80cb8, type: 3}
    - {fileID: 21300000, guid: 264459e9ee8fe7845b4b457ba5a25080, type: 3}
    - {fileID: 21300000, guid: 77c22aa14493cb2429509ea524c1efaa, type: 3}
    - {fileID: 21300000, guid: c8fa60e101a179047b5c9b0170ddf246, type: 3}
    - {fileID: 21300000, guid: 32a52f6948a21f74899502a13568ec9d, type: 3}
  m_AnimationClipSettings:
    serializedVersion: 2
    m_AdditiveReferencePoseClip: {fileID: 0}
    m_AdditiveReferencePoseTime: 0
    m_StartTime: 0
    m_StopTime: 0.5
    m_OrientationOffsetY: 0
    m_Level: 0
    m_CycleOffset: 0
    m_HasAdditiveReferencePose: 0
    m_LoopTime: 1
    m_LoopBlend: 0
    m_LoopBlendOrientation: 0
    m_LoopBlendPositionY: 0
    m_LoopBlendPositionXZ: 0
    m_KeepOriginalOrientation: 0
    m_KeepOriginalPositionY: 1
    m_KeepOriginalPositionXZ: 0
    m_HeightFromFeet: 0
    m_Mirror: 0
  m_EditorCurves: []
  m_EulerEditorCurves: []
  m_HasGenericRootTransform: 0
  m_HasMotionFloatCurves: 0
  m_Events: []
